,J0621610,J0626610,J1105810,J1114010,J1205410,J1313010,J1324010,J3733010,J5613010,J7214010,J7313010,J7353010,J8602410,J8632410
1959,,,,,,,,,,,,,,
1960,,,,,,,,,,,,,,
1961,,,,,,,,,,,,,,
1962,,,,,,,,,,,,,,
1963,,,,,,,,,,,,,,
1964,,,,,,,,,,,,,,
1965,,,,,,,,,,,,,,
1966,,,,,,,,,,,,,,
1967,,,,,,,,,,,,,,
1968,,,,,,,,,,,,,,
1969,,,,,,,,,,,,,,
1970,,,,,,,,,,,,,,
1971,,,,,,,,,,,,,,
1972,,,,,,,,,,,,,,
1973,,,,,,,,,,,,,,
1974,,,,,,,,,,,,,,
1975,,,,,,,,,,,,,,
1976,,,,,,,,,,,,,,
1977,,,,,,,,,,,,,,
1978,,,,,,,,,,,,,,
1979,,,,,,,,,,,,,,
1980,,,,,,,,,,,,,,
1981,,,,,,,,,,,,,,
1982,,,,,,,,,,,,,,
1983,,,,,,,,,,,,,,
1984,,,,,,,,,,,,,,
1985,,,,,,,,,,,,,,
1986,,,,,,,,,,,,,,
1987,,,,,,,,,,,,,,
1988,,,,,,,,,,,,,,
1989,,,,,,,,,,,,,,
1990,,,,,,,,,,,,,,
1991,,,,,,,,,,,,,,
1992,,,,,,,,,,,,,,
1993,,,,,,,,,,,,,,
1994,,,,,,,,,,,,,,
1995,,,,,,,,,,,,,,
1996,,,,,,,,,,,,,,
1997,,,,,,,,,,,,,,
1998,,,,,,,,,,,,,,
1999,,,,,,,,,,,,,,
2000,,,,,,,,,,,,,,
2001,,,,,,,,,,,,,,
2002,,,,,,,,,,,,,,
2003,,,,,,0.6064029288948293,,,,,,,,
2004,,,,,,,,,,,,,,
2005,,,,,,,,,,,,,,
2006,,,,,,,,,,,,,,
2007,,,,,,,,,,,,,,
2008,,,,,,,,,,,,,,
2009,0.5185802982090857,0.5339630588602198,0.5450260867559332,0.5262683566293445,,0.5377634701712748,0.5315074296484948,0.5141502273136769,0.5424990760916374,0.5375272759691391,0.5170396444711407,0.5323727497156987,,0.5551595509562246
2010,,,,,,,,,,,,,,
2011,,,,,,,,,,,,,,
2012,,,,,,,,,,,,,,
2013,,,,,,,,,,,,,,
2014,,,,,,,,,,,,,,
2015,,,,,,,,,,,,,,
2016,,,,,,,,,,,,,,
2017,,,,,,,,,,,,,,
2018,,,,,,,,,,,,,,
2019,,,,,,,,,,,,,,
2020,,,,,,,,,,,,,,
2021,,,,,,,,,,,,,,
2022,,,,,,,,,,,,,,
2023,,,,,,,,,,,,,,
2024,,,,,,,,,,,,,,
