,J0611610,J1405310,J1524010,J2023010,J2213110,J3514010,J4712010,J4803010,J7024010,J7103010,J7344010,J8133010
1959,,,,,,,,,,,,
1960,,,,,,,,,,,,
1961,,,,,,,,,,,,
1962,,,,,,,,,,,,
1963,,,,,,,,,,,,
1964,,,,,,,,,,,,
1965,,,,,,,,,,,,
1966,,,,,,,,,,,,
1967,,,,,,,,,,,,
1968,,,,,,,,,,,,
1969,,,,,,,,,,,,
1970,,,,,,,,,,,,
1971,,,,,,,,,,,,
1972,,,,,,,,,,,,
1973,,,,,,,,,,,,
1974,,,,,,,,,,,,
1975,,,,,,,,,,,,
1976,,,,,,,,,,,,
1977,,,,,,,,,,,,
1978,,,,,,,,,,,,
1979,,,,,,,,,,,,
1980,,,,,,,,,,,,
1981,,,,,,,,,,,,
1982,,,,,,,,,,,,
1983,,,,,,,,,,,,
1984,,,,,,,,,,,,
1985,,,,,,,,,,,,
1986,,,,,,,,,,,,
1987,,,,,,,,,,,,
1988,,,,,,,,,,,,
1989,,,,,,,,,,,,
1990,,,,,,,,,,,,
1991,,,,,,,,,,,,
1992,,,,,,,,,,,,
1993,,,,,,,,,,,,
1994,,,,,,,,,,,,
1995,,,,,,,,,,,,
1996,,,,,,,,,,,,
1997,,,,,,,,,,,,
1998,,,,,,,,,,,,
1999,,,,,,,,,,,,
2000,,,,,,,,,,,,
2001,,,,,,,,,,,,
2002,,,,,,,,,,,,
2003,,,,,,,,,,,,
2004,,,,,,,,,,,,
2005,,,,,,,,,,,,
2006,,,,,,,,,,,,
2007,,,,,,,,,,,,
2008,0.374205121879722,0.3794859397138474,0.4006472514774226,0.38417588676458325,0.3663208446199994,0.36122535567661646,0.37946790212615994,0.35082526213711385,0.3577494778765783,0.40149768742738184,,0.37161980266133277
2009,,,,,,,,,,,,
2010,,,,,,,,,,,,
2011,,,,,,,,,,,,
2012,0.37667188966742826,,,,,,,,,,0.3790503362459614,
2013,,,,,,,,,,,,
2014,,,,,,,,,,,,
2015,,,,,,,,,,,,
2016,,,,,,,,,,,,
2017,,,,,,,,,,,,
2018,,,,,,,,,,,,
2019,,,,,,,,,,,,
2020,,,,,,,,,,,,
2021,,,,,,,,,,,,
2022,,,,,,,,,,,,
2023,,,,,,,,,,,,
2024,,,,,,,,,,,,
