,J0621610,J0626610,J1105810,J1114010,J1205410,J1313010,J1324010,J3733010,J5613010,J7214010,J7313010,J7353010,J8602410,J8632410
1959,,,,,,,,,,,,,,
1960,,,,,,,,,,,,,,
1961,,,,,,,,,,,,,,
1962,,,,,,,,,,,,,,
1963,,,,,,,,,,,,,,
1964,,,,,,,,,,,,,,
1965,,,,,,,,,,,,,,
1966,,,,,,,,,,,,,,
1967,,,,,,,,,,,,,,
1968,,,,,,,,,,,,,,
1969,,,,,,,,,,,,,,
1970,,0.3546240645897657,,,,,,,,,,,,
1971,,,,,,,,,,,,,,
1972,,,,,,,,,,,,,,
1973,,,,,,,,,,,,,,
1974,,,,,,,,,,,,,,
1975,0.3541765892686333,0.3566902339432202,,,,,,,,,,,,
1976,,,,,,,,,,,,,,
1977,,,,,,,,,,,,,,
1978,,0.3395881370489163,,,,,,,,,,,,0.35045213581101387
1979,,,,,,,,,,,,,,
1980,,,,,,0.38716251249292133,,,,,,,,
1981,,,,,,,,,,,,,,
1982,,,,,,,,,,,,,,
1983,,,,,,,,,,,,,,
1984,,,,,,,,,,,,,,
1985,0.42721100487682867,0.4263126458031623,,0.41467894654787385,,0.3928912507755137,,,,0.4016856634051078,,0.4163046084184522,0.40272771943163443,
1986,,,,,,,,,,,,,,
1987,,,,,,,,,,,,,,
1988,0.36536119651960397,0.352971194470747,,0.3529767898921531,,0.3407240609489184,,,,0.3853507622291693,,0.35747926552853876,0.3537813415255344,
1989,,,,,,,,,,,,,,
1990,,,,,,,,,,,,,,
1991,,,,,,,,,,,,,,
1992,,,,,,,,,,,,,,
1993,,,,,,,,,,,,,,
1994,,,,,,,,,,,,,,
1995,,,,,,,,,,,,,,
1996,,,,,,,,,,,,,,
1997,,,,,,,,,,,,,,
1998,,,,,,,,,,,,,,
1999,,,,,,,,,,,,,,
2000,,,,,,,,,,,,,,
2001,,,,,,,,,,,,,,
2002,,,,,,,,,0.4031929937396886,,,,,
2003,,,,,,,,,,,,,,
2004,,,,,,,,,,,,,,
2005,,,,,,,,,,,,,,
2006,,,,,,,,,,,,,,
2007,0.37509208598441357,0.4017926191671932,0.3551794301684632,0.35297932015436495,,0.37229002471902023,0.37276206920360583,,,0.36480343969748386,,0.3912771667296198,0.350212674556941,
2008,0.3427268115929796,,0.3337945829562925,0.34965915814030957,,0.35774049823841836,0.33886503357624986,,0.3346201451761326,0.3464553239239676,,,,0.34963839573020916
2009,,,,,,,,,,,,,,
2010,,,,,,,,,,,,,,
2011,,,,,,,,,,,,,,
2012,,,,,,,,,,,,,,
2013,,,,,,,,,,,,,,
2014,,,,,,,,,,,,,,
2015,,,,,,,,,,,,,,
2016,,,,,,,,,,,,,,
2017,,,,,,,,,,,,,,
2018,,,,,,,,,,0.38052496070158415,0.38419664632740863,,0.3700643830598027,
2019,,,,,,,,,,,,,,
2020,,,,,,,,,,,,,,
2021,,,,,,,,,,,,,,
2022,,,,,,,,,,,,,,
2023,,,,,,,,,,,,,,
2024,,,,,,,,,,,,,,
