,J1513010,J1614010,J1711710,J1803010,J2514010,J2614010,J2723010,J3834010,J4125720,J4211910,J4214510,J5102210,J5618310,J6213010,J7803020,J8433010
1959,,,,,,,,,,,,,,,,
1960,,,,,,,,,,,,,,,,
1961,,,,,,,,,,,,,,,,
1962,,,,,,,,,,,,,,,,
1963,,,,,,,,,,,,,,,,
1964,,,,,,,,,,,,,,,,
1965,,,,,,,,,,,,,,,,
1966,,,,,,,,,,,,,,,,
1967,,,,,,,,,,,,,,,,
1968,,,,,,,,,,,,,,,,
1969,,,,,,,,,,,,,,,,
1970,,,,,,,,,,,,,,,,
1971,,,,,,,,,,,,,,,,
1972,,,,,,,,,,,,,,,,
1973,,,,,,,,,,,,,,,,
1974,,,,,,,,,,,,,,,,
1975,,,,,,,,,,,,,,,,
1976,,,,,,,,,,,,,,,,
1977,,,,,,,,,,,,,,,,
1978,,,,,,,,,,,,,,,,
1979,,,,,,,,,,,,,,,,
1980,,,,,,,,,,,,,,,,
1981,,,,,,,,,,,,,,,,
1982,,,,,,,,,,,,,,,,
1983,,,,,,,,,,,,,,,,
1984,,,,,,,,,,,,,,,,
1985,,,,,,,,,,,,,,,,
1986,,,,,,,,,,,,,,,,
1987,,,,,,,,,,,,,,,,
1988,,,,,,,,,,,,,,,,
1989,,,,,,,,,,,,,,,,
1990,,,,,,,,,,,,,,,,
1991,,,,,,,,,,,,,,,,
1992,,,,,,,,,,,,,,,,
1993,,,,,,,,,,,,,,,,
1994,,,,,,,,,,,,,,,,
1995,,,,,,,,,,,,,,,,
1996,,,,,,,,,,,,,,,,
1997,,,,,,,,,,,,,,,,
1998,,,,,,,,,,,,,,,,
1999,,,,,,,,,,,,,,,,
2000,,,,,,,,,,,,,,,,
2001,,,,,,,,,,,,,,,,
2002,,,,,,,,,,,,,,,,
2003,,,,,,,,,,,,,,,,
2004,,,,,,,,,,,,,,,,
2005,,,,,,,0.6213937541706571,0.6298984826185982,0.6715612094131347,0.6393726947591962,0.6386560415115188,0.6797437841149552,0.6812144978247785,0.6627685234710372,0.6191222994324302,0.6460394465011445
2006,,,,,,,,,,,,,,,,
2007,,,,,,,,,,,,,,,,
2008,,,,,,,,,,,,,,,,
2009,,,,,,,,,,,,,,,,
2010,,,,,,,,,,,,,,,,
2011,,,,,,,,,,,,,,,,
2012,,,,,,,,,,,,,,,,
2013,,,,,,,,,,,,,,,,
2014,,,,,,,,,,,,,,,,
2015,,,,,,,,,,,,,,,,
2016,,,,,,,,,,,,,,,,
2017,,,,,,,,,,,,,,,,
2018,,,,,,,,,,,,,,,,
2019,,,,,,,,,,,,,,,,
2020,,,,,,,,,,,,,,,,
2021,,,,,,,,,,,,,,,,
2022,,,,,,,,,,,,,,,,
2023,,,,,,,,,,,,,,,,
2024,,,,,,,,,,,,,,,,
