,J0621610,J0626610,J1105810,J1114010,J1205410,J1313010,J1324010,J3733010,J5613010,J7214010,J7313010,J7353010,J8602410,J8632410
1959,,,,,,,,,,,,,,
1960,,,,,,,,,,,,,,
1961,,,,,,,,,,,,,,
1962,,,,,,,,,,,,,,
1963,,,,,,,,,,,,,,
1964,,,,,,,,,,,,,,
1965,,,,,,,,,,,,,,
1966,,,,,,,,,,,,,,
1967,,,,,,,,,,,,,,
1968,,,,,,,,,,,,,,
1969,,,,,,,,,,,,,,
1970,0.22832873634579845,,,,,,,0.22416665939963526,,,,0.22255934919574846,,
1971,0.2772828357866304,0.2876512942524251,,,,,,0.2528011863218037,0.2491216018935026,,,0.3174158568630745,0.248514425582412,0.2693820225974875
1972,,,,,,,,,,,,,,
1973,,,,,,,,,,,,,,
1974,,,,,,,,0.2361030812919114,,,,,,
1975,,,,,,,,0.2410179195406137,0.2293449964714695,,,0.2231433016905684,,0.24150393349028101
1976,,,,,,,,,,,,,,
1977,,,,,,,,,,,,,,
1978,,,,,,,,,,,,,,
1979,0.3105507584475328,0.3105507584475328,0.3105507584475328,0.3105507584475328,0.3105507584475328,0.3105507584475328,0.3105507584475328,0.3105507584475328,0.3105507584475328,0.3105507584475328,0.3105507584475328,0.3105507584475328,0.3105507584475328,0.3105507584475328
1980,,,,,,,,,,,,,,
1981,,,,,,,,,,,,,,
1982,,,,0.22995002615467924,,,,,,,,,,
1983,,,,,,,,,,,,,,
1984,0.23293683410697857,,,,,,,,,0.23513800346412647,,,,
1985,,,,,,,,,,,,,,
1986,,,,,,,,,,,,,,
1987,0.2411192213312067,,,0.24049901112462704,,0.2367702977783661,0.23723116053739604,0.22449981020647042,,,,0.24121941672912642,,0.24760044905192852
1988,,,,,,,,0.24075857146980376,,,,,,
1989,,,,,,,,,,,,,,
1990,,,,,,,,,,,,,,
1991,,,,0.22372173836622877,,0.23793977138468597,,0.22559405787721165,,,,0.24189023941962337,0.22730204965096318,0.24279806217807673
1992,,,,,,,,,,,,,,
1993,,,,,,,,,,,,,,
1994,,,,,,,,,,,,,0.23496933122907623,0.2361610603706896
1995,,,,,,,,,,,,,,
1996,0.27156838508508324,0.26815539915864844,,0.25359591942777576,,0.26150451634913063,,,0.23513960946996268,0.30588989238845976,0.26955129733617716,0.2725414600172896,0.2535163466437563,0.2629804965391355
1997,,,,,,,,,,,,,,
1998,,,,,,,,,,,,,,
1999,,,,,,,,,,,,,,
2000,,,,,,,,,,,,,,
2001,,,,,,,,,,,,,,
2002,,0.23740481172135391,0.24516373793134913,0.25830733042634885,,0.26805509407928363,0.22492189388988118,0.23056901739719987,,0.2676689811837923,,0.22626745272191873,0.25037190686724503,
2003,,,,,,,,,,,,,,
2004,,,,,,,,,0.22830006042056245,0.2578349173672279,,,0.22249068520868087,0.24390651578693037
2005,0.23114123746967358,0.24026634982841644,,0.22471648704700975,,0.22344866333385074,0.22476497893161151,,,0.22338864711436116,,0.24605354399075802,0.2240900357648749,
2006,,,,,,,,,,,,,,
2007,,,,,,,,,,,,,,
2008,,,,,,,,,,,,,,
2009,0.24073092699446927,0.2625014243416348,0.24897127959884496,0.23706417443353858,,0.26029554819706724,0.25222937691562014,0.24825510858133157,,0.26744434760779767,,0.26632944472456266,,0.26542359388780773
2010,,0.2454523327053333,,,,,,,,,,,,
2011,,,,,,,,,,,,,,
2012,,,,,,,,,,,,,,
2013,,,,,,,,,,,,,,
2014,,,,,,,,,,,,,,
2015,,,,,,,,,,,,,,
2016,,,,,,,,,,,,,,
2017,,,,,0.22655402892330065,,,,,,,,,
2018,,,,,,,,,,,,,,
2019,,,,,,,0.22271983096455866,,0.23054879687600613,,0.2236963293663727,,0.22762825649913954,0.24031964954477586
2020,,,,,,,,,,,,,,
2021,,0.23163196968465352,0.2401021660029955,0.2515887581677348,0.2549406387229345,0.24587168144334487,0.2413897737565963,,0.22722186874021388,0.24456001469983407,0.24151830605007749,0.23422053456982467,,
2022,,,0.2294304968126905,,0.22522231228167305,,0.24901086317035967,0.23342329262535544,,0.243233903460117,0.24310004750264133,0.23207898845670624,0.29581465112571603,0.23525746030639347
2023,,,,,,,,,,,,,,
2024,,,,,,,,,,,,,,
