,J2034010,J2314910,J2404010,J2603010,J3024010,J3323020,J3403020,J3404110,J3413030,J4124420,J4224010,J4514010,J4515420,J5202110,J5205210
1959,,,,,,,,,,,,,,,
1960,,,,,,,,,,,,,,,
1961,,,,,,,,,,,,,,,
1962,,,,,,,,,,,,,,,
1963,,,,,,,,,,,,,,,
1964,,,,,,,,,,,,,,,
1965,,,,,,,,,,,,,,,
1966,,,,,,,,,,,,,,,
1967,,,,,,,,,,,,,,,
1968,,,,,,,,,,,,,,,
1969,,,,,,,,,,,,,,,
1970,,,,,,,,,,,,,,,
1971,,,,,,,,,,,,,,,
1972,,,,,,,,,,,,,,,
1973,,,,,,,,,,,,,,,
1974,,,,,,,,,,,,,,,
1975,,,,,,,,,,,,,,,
1976,,,,,,,,,,,,,,,
1977,,,,,,,,,,,,,,,
1978,,,,,,,,,,,,,,,
1979,,,,,,,,,,,,,,,
1980,,,,,,,,,,,,,,,
1981,,,,,,,,,,,,,,,
1982,,,,,,,,,,,,,,,
1983,,,,,,,,,,,,,,,
1984,,,,,,,,,,,,,,,
1985,,,,,,,,,,,,,,,
1986,,,,,,,,,,,,,,,
1987,,,,,,,,,,,,,,,
1988,,,,,,,,,,,,,,,
1989,,,,,,,,,,,,,,,
1990,,,,,,,,,,,,,,,
1991,,,,,,,,,,,,,,,
1992,,,,,,,,,,,,,,,
1993,,,,,,,,,,,,,,,
1994,,,,,,,,,,,,,,,
1995,,,,,,,,,,,,,,,
1996,,,,,,,,,,,,,,,
1997,,,,,,,,,,,,,,,
1998,,,,,,,,,,,,,,,
1999,,,,,,,,,,,,,,,
2000,,,,,,,,,,,,,,,
2001,,,,,,,,,,,,,,,
2002,,,,,,,,,,,,,,,
2003,,,,,,,,,,,,,,,
2004,,,,,,,,,,,,,,,
2005,,,,,,,,,,,,,,,
2006,,,,,,,,,,,,,,,
2007,,,,,,,,,,,,,,,
2008,,,,,,,,,,,,,,,
2009,,,,,,,,,,,,,,,
2010,,,,,,,,,,,,,,,
2011,,,,,,,,,,,,,,,
2012,,,,,,,,,,,,,,,
2013,,,,,,,,,,,,,,,
2014,,,,,,,,,,,,,,,
2015,,,,,,,,,,,,,,,
2016,,,,,,,,,,,,,,,
2017,,0.6024474631769983,0.618384403011973,,,,,,,,,,,,
2018,,,,,,,,,,,,,,,
2019,0.6001892053554996,,,0.615398763393329,0.6121285959492162,,0.6402904376386691,0.6222202270924321,0.648598966798563,,0.6097985541729085,,,,
2020,,,,,,,,,,,,,,,
2021,0.6949444562297109,,0.7202375990264799,0.6987641728696227,,,0.6937774403669208,0.7013915928382868,0.7151955815876603,,0.6981020758350575,0.6904700353824222,0.7045182115496098,0.7462914742726744,0.7881866841296072
2022,,,,,,,,,,,,,,,
2023,,,,,,,,,,,,,,,
2024,,,,,,,,,,,,,,,
