,J0014010,J0144010,J3014330,J3204020,J3205710,J3213020,J3403010
1959,,,,,,,
1960,,,,,,,
1961,,,,,,,
1962,,,,,,,
1963,,,,,,,
1964,,,,,,,
1965,,,,,,,
1966,,,,,,,
1967,,,,,,,
1968,,,,,,,
1969,,,,,,,
1970,,,,,,,
1971,,,,,,,
1972,,,,,,,
1973,,,,,,,
1974,,,,,,,
1975,,,,,,,
1976,,,,,,,
1977,,,,,,,
1978,,,,,,,
1979,,,,,,,
1980,,,,,,,
1981,,,,,,,
1982,,,,,,,
1983,,,,,,,
1984,,,,,,,
1985,,,,,,,
1986,,,,,,,
1987,,,,,,,
1988,,,,,,,
1989,,,,,,,
1990,,,,,,,
1991,,,,,,,
1992,,,,,,,
1993,0.3589791030111649,0.3589791030111649,0.3589791030111649,0.3589791030111649,0.3589791030111649,0.3589791030111649,0.3589791030111649
1994,,,,,,,
1995,,,,,,,
1996,,,,,,,
1997,,,,,,,
1998,0.33573731758753694,0.33573731758753694,0.33573731758753694,0.33573731758753694,0.33573731758753694,0.33573731758753694,0.33573731758753694
1999,,,,,,,
2000,,,,,,,
2001,,,,,,,
2002,,,,,,,
2003,,,,,,,
2004,,,,,,,
2005,0.4238111851288863,0.7462010453874663,0.7472214724266125,0.4238111851288863,0.7469669860252964,0.7374114323599361,0.7273314877462655
2006,,,,,,,
2007,,,,,,,
2008,,,,,,,
2009,,,,,,,
2010,,,,,,,
2011,,,,,,,
2012,,,,,,,
2013,,,,,,,
2014,,,,,,,
2015,,,,,,,
2016,,,,,,,
2017,,,,,,,
2018,,,,,,,
2019,,,,,,,
2020,,,,,,,
2021,,,,,,,
2022,,,,,,,
2023,,,,,,,
2024,,,,,,,
