,J1513010,J1614010,J1711710,J1803010,J2514010,J2614010,J2723010,J3834010,J4125720,J4211910,J4214510,J5102210,J5618310,J6213010,J7803020,J8433010
1959,,,,,,,,,,,,,,,,
1960,,,,,,,,,,,,,,,,
1961,,,,,,,,,,,,,,,,
1962,,,,,,,,,,,,,,,,
1963,,,,,,,,,,,,,,,,
1964,,,,,,,,,,,,,,,,
1965,,,,,,,,,,,,,,,,
1966,,,,,,,,,,,,,,,,
1967,,,,,,,,,,,,,,,,
1968,,,,,,,,,,,,,,,,
1969,,,,,,,,,,,,,,,,
1970,,,,,,,,,,,,,,,,
1971,,,,,,,,,,,,,,,,
1972,,,,,,,,,,,,,,,,
1973,,,,,,,,,,,,,,,,
1974,,,,,,,,,,,,,,,,
1975,,,,,,0.2569432760336349,,,,,,,,,,
1976,,,,,,,,,,,,,,,,
1977,,,,,,,,,,,,,,,,
1978,,,,,,,,,,,,,,,,
1979,,,,,,,,,,,,,,,,
1980,,,,,,,,,,,,,,0.28168127232056167,,
1981,,,,,,,,,,,,,,,,
1982,,,,,,,,,,,,,,,,
1983,,,,,,,,,,,,,,,,
1984,,,,,,,,,,,,,,0.27472636064797845,,
1985,,,,,,,,,,,,,,,,
1986,,,,,,,,,,,,,,,,
1987,,,,,0.2618500262791773,,,,,,,,,,,
1988,,,,,,,,,,,,,,,,
1989,,,,,,,,,,,,,,,,0.2734282754647252
1990,,,,,,,,,,,,,,,,
1991,,,,,,,,,,,0.25609902504677373,,,0.25668981319933687,,
1992,,,,,,,,,,,,,,,,
1993,0.263603391486099,,,,,,,,0.2630808803627344,0.26336836550987974,,,,0.2568622029610534,,
1994,,,,,,,,,,,,,,,,
1995,,,,,,,,,,,,,,,,
1996,,,,,,,,,,,,,,,,
1997,,,,,,,,,,,,,,,,
1998,,,,,,,,,,,,,,,,
1999,,,,,,,,,,,,,,,,
2000,,,,,,,,,,,,,,,,
2001,,,,,,,,,,,,,,,,
2002,,,,,,,,,,,,,,,,
2003,,,,,,,,,,,,,,,,
2004,,,,,,,,,0.2579826607152609,,,,,,,
2005,,,,,,,,,,,,,,,,
2006,,,,,,,,,,,,,,,,
2007,,,,,,,,,,,,,,,,
2008,,,,,,,0.25827844319971033,,,,,,,,,
2009,,,,,,,,,,,,,,,,
2010,,,,,,,,,,,,,,,,
2011,,,,,,,,,,,,,,,,
2012,,,,,,,,,,,,,,,,
2013,,,,,,,,,,,,,,,,
2014,,,,,,,,,,,,,,,,
2015,,,,,,,,,,,,,,,,
2016,,,,,,,,,,,,,,,,
2017,,,,,,,,,,,,,,,,
2018,,,,,,,,0.4541919834481217,,,,,,,,
2019,,,,,,,,,,,,,,,,
2020,,,,,,,,,,,,,,,,
2021,,,,,,,,,,,,,,,,
2022,,,,,,,,,,,,,,,,
2023,,,,,,,,,,,,,,,0.25839889195383886,
2024,,,,,,,,,,,,,,,,
