,J1513010,J1614010,J1711710,J1803010,J2514010,J2614010,J2723010,J3834010,J4125720,J4211910,J4214510,J5102210,J5618310,J6213010,J7803020,J8433010
1959,,,,,,,,,,,,,,,,
1960,,,,,,,,,,,,,,,,
1961,,,,,,,,,,,,,,,,
1962,,,,,,,,,,,,,,,,
1963,,,,,,,,,,,,,,,,
1964,,,,,,,,,,,,,,,,
1965,,,,,,,,,,,,,,,,
1966,,,,,,,,,,,,,,,,
1967,,,,,,,,,,,,,,,,
1968,,,,,,,,,,,,,,,,
1969,,,,,,,,,,,,,,,,
1970,,,,,,,,,,,,,,,,
1971,,,,,,,,,,,,,,,,
1972,,,,,,,,,,,,,,,,
1973,,,,,,,,,,,,,,,,
1974,,,,,,,,,,,,,,,,
1975,,,,,0.49507602521963195,,,,,0.4924510500805619,,0.5066644475148245,,0.5096989297269559,,0.5079951789588636
1976,,,,,,,,,,,,,,,,
1977,,,,,,,,,,,,,,,,
1978,,,,,,,,,,,,,,,,
1979,,,,,,,,,,,,,,,,
1980,,,,,,,,,,,,,,,,
1981,,,,,,,,,,,,,,,,
1982,,,0.40091176150849417,,,0.4135888475887153,0.4278536153503564,,,,,0.41353710320924064,,,,
1983,,,,,,,,,,,,,,,,
1984,,,0.4663098549077176,,,0.454297306028952,0.45162171915133276,,,0.49059852755883204,0.4678128637899976,0.5380861940973032,,0.5369043720714413,,0.4635953499839489
1985,,,,,,,,,,,,0.41728601421546724,,0.3997861719792153,,
1986,,,,,,,0.4934815374865548,,0.5129981242213354,,0.48598792764175214,,,,,
1987,,,,,0.511457224626351,,0.4747543304819954,,0.5097021180565969,,,,,,,
1988,,,,,,,,,,,,,,,,
1989,,,,,,,,,,,,,,,,
1990,,,,,,,,,,,,,,,,
1991,,,,,,,,,,,,,,,,
1992,,,,,,,,,,,,,,,,
1993,,,,,,,,,,,,,,,,
1994,,,,,,,,,,,,,,,,
1995,,,,,,,,,,,,,,,,
1996,,,,,,,,,,,,,,,,
1997,,,,,,,,,,,,,,,,
1998,,,,,,,,,,,,,,,,
1999,,,,,,,,,,,,,,,,
2000,,,,,,,,,,,,,,,,
2001,,,,,,,,,,,,,,,,
2002,,,,,,,,,,,,,,,,
2003,,,,,,,,,,,,,,,,
2004,,,,,,,,,,,,,,,,
2005,,,,,,,,,,,,,,,,
2006,,,,,,,,,,,,,,,,
2007,,,,,,,,,,,,,,,,
2008,,0.4738496239609769,0.49623294447706146,,0.4790755540099948,0.47403004462957654,0.4938785885401108,,0.4722603220863182,0.4667793645916981,,0.46498250201857017,,0.4622320254535668,,0.46351887583865314
2009,,,,,,,,,,,,,,,,
2010,,,,,,,,,,,,,,,,
2011,,,,,,,,,,,,,,,,
2012,,,,,,,,,,,,,,,,
2013,,,,,,,,,,,,,,,,
2014,,,,,,,,,,,,,,,,
2015,,,,,,,,,,,,,,,,
2016,,,,,,,,,,,,,,,,
2017,,,,,,,,,,,,,,,,
2018,,,,,,,,,,,,,,,,
2019,,,,,,,,,,,,,,,,
2020,,,,,,,,,,,,,,,,
2021,,,,,,,,,,,,,,,,
2022,0.4109412714184202,0.4100566608264099,0.4385894861342101,0.4208554925451282,,,,,0.4330158308915643,0.42748422965334265,,0.42418535108398997,,0.42811664944175065,,0.43116442242974484
2023,,,,,0.44714231243241775,,,,0.49421223429126226,,,,0.4703149209269496,,0.45899598506608985,
2024,,,,,,,,,,,,,,,,
