,J1513010,J1614010,J1711710,J1803010,J2514010,J2614010,J2723010,J3834010,J4125720,J4211910,J4214510,J5102210,J5618310,J6213010,J7803020,J8433010
1959,,,,,,,,,,,,,,,,
1960,,,,,,,,,,,,,,,,
1961,,,,,,,,,,,,,,,,
1962,,,,,,,,,,,,,,,,
1963,,,,,,,,,,,,,,,,
1964,,,,,,,,,,,,,,,,
1965,0.3079484611803847,0.3079484611803847,0.3079484611803847,0.3079484611803847,0.3079484611803847,0.3079484611803847,0.3079484611803847,0.3079484611803847,0.3079484611803847,0.3079484611803847,0.3079484611803847,0.3079484611803847,0.3079484611803847,0.3079484611803847,0.3079484611803847,0.3079484611803847
1966,,,,,,,,,,,,,,,,
1967,,,,,,,,,,,,,,,,
1968,,,,,,,,,,,,,,,,
1969,,,,,,,,,,,,,,,,
1970,,,,,,,,,,,,,,,,
1971,,,,,,,,,,0.3167167775386209,,,,,,
1972,,,,,,,,,,,,,,,,
1973,,,,,,,,,,,,,,,,
1974,,,,,,,,,,,,,,,,
1975,0.32620702617259173,0.32620702617259173,0.32620702617259173,0.32620702617259173,0.32620702617259173,0.32620702617259173,0.32620702617259173,0.32620702617259173,0.32620702617259173,0.32620702617259173,0.32620702617259173,0.32620702617259173,0.32620702617259173,0.32620702617259173,0.32620702617259173,0.32620702617259173
1976,,,,,,,,,,,,,,,,
1977,,,,,,,,,,,,,,,,
1978,,,,,,,,,,,,,,,,
1979,,,,,,,,,,,,,,,,
1980,,,,,,,,,,,,,,,,
1981,,,,,,,,,,,,,,,,
1982,,,,,,,,,,,,,,,,
1983,,,,,,,,,,,,,,,,
1984,,,,,,,,,,,,,,,,
1985,,,,,,,,,,,,,,,,
1986,,,,,,,,,,,,,,,,
1987,0.3197715367956753,0.3197715367956753,0.3197715367956753,0.3197715367956753,0.3197715367956753,0.3197715367956753,0.3197715367956753,0.3197715367956753,0.3197715367956753,0.3197715367956753,0.3197715367956753,0.3197715367956753,0.3197715367956753,0.3197715367956753,0.3197715367956753,0.3197715367956753
1988,,,,,,,,,,,,,,,,
1989,,,,,,,,,,,,,,,,
1990,,,,,,,,,,,,,,,,
1991,,,,,,0.300549898508726,,,,,,,,,,
1992,,,,,,,,,,,,,,,,
1993,,,,,,,,,,,,,,,,
1994,,,,,,,,,,,,,,,,
1995,,,,,,,,,,,,,,,,
1996,,,,,,,,,,,,,,,,
1997,,,,,,,,,,,,,,,,
1998,,,,,,,,,,,,,,,,
1999,,,,,,,,,,,,,,,,
2000,,,,,,,,,,,,,,,,
2001,,,,,,,,,,,,,,,,
2002,,,,0.31035361036317904,,,,,,,,,,,,
2003,,,,,,,,,,,,,,,,
2004,0.31575519687961584,,0.34120896617354174,,,,,,,,,,,,,
2005,,,,,,,,,,,,,,,,
2006,,,,,,,,,,,,,,,,
2007,,,,,,,,,,,,,,,,
2008,,,,,,,,,,,,,,,,
2009,,0.3092069816202303,0.3008101092850234,,,,0.307791865627707,,,,,,,0.3007351342124811,,
2010,,,,,,,,,,,,,,,,
2011,,,,,,,,,,,,,,,,
2012,,,,,,,,,,,,,,,,
2013,,,,,,,,,,,,,,,,
2014,,,,,,,,,,,,,,,,
2015,,,,,,,,,,,,,,,,
2016,,,,,,,,,,,,,,,,
2017,,,,,,,,,,,,,,,,
2018,,,,,,,,0.31487464089907624,,,,,,,,
2019,,,,,,,,,,,,0.3059346951455854,,,,
2020,,,,,,,,,,,,,,,,
2021,,,,,,,,,,,,,,,,
2022,,,,,,,,,,,,,,,,
2023,,,,,,,,,,,,,,,,
2024,,,,,,,,,,,,,,,,
