,J0611610,J1405310,J1524010,J2023010,J2213110,J3514010,J4712010,J4803010,J7024010,J7103010,J7344010,J8133010
1959,,,,,,,,,,,,
1960,,,,,,,,,,,,
1961,,,,,,,,,,,,
1962,,,,,,,,,,,,
1963,,,,,,,,,,,,
1964,,,,,,,,,,,,
1965,,,,,,,,,,,,
1966,,,,,,,,,,,,
1967,,,,,,,,,,,,
1968,,,,,,,,,,,,
1969,,,,,,,,,,,,
1970,,,,,,,,,,,,
1971,,,,,,,,,,,,
1972,,,,,,,,,,,,
1973,,,,,,,,,,,,
1974,,,,,,,,,,,,
1975,,,,,,,,,,,,
1976,,,,,,,,,,,,
1977,,,,,,,,,,,,
1978,,,,,,,,,,,,
1979,,,,,,,,,,,,
1980,,,,,,,,,,,,
1981,,,,,,,,,,,,
1982,,,,,,,,,,,,
1983,,,,,,,,,,,,
1984,,,,,,,,,,,,
1985,,,,,,,,,,,,
1986,,,,,,,,,,,,
1987,,,,,,,,,,,,
1988,,,,,,,,,,,,
1989,,,,,,,,,,,,
1990,,,,,,,,,,,,
1991,,,,,,,,,,,,
1992,,,,,,,,,,,,
1993,,,,,,,,,,,,
1994,,,,,,,,,,,,
1995,,,,,,,,,,,,
1996,,,,,,,,,,,,
1997,,,,,,,,,,,,
1998,,,,,,,,,,,,
1999,,,,,,,,,,,,
2000,,,,,,,,,,,,
2001,,,,,,,,,,,,
2002,,,,,,,,,,,,
2003,0.5728345137321603,,,0.5395270521878668,0.5373714084738015,,0.5536651658275227,0.5478394988133156,0.5401192529404488,0.5345055791903793,,0.5556237996414005
2004,,,,,,,,,,,,
2005,,,,,,,,,,,,
2006,,,,,,,,,,,,
2007,,,,,,,,,,,,
2008,,,,,,,,,,,,
2009,0.6437097465457817,0.6123501533464496,0.607046585237359,0.6537629240996172,0.6011937762757563,,0.5928182914788747,0.593374875770908,,0.6040400781335655,,0.6345659932915994
2010,,,,,,,,,,,,
2011,,,,,,,,,0.5441540399801211,,0.5601038049569473,0.5338880033566851
2012,,,,,,,,,,,,
2013,,,,,,,,,,,,
2014,,,,,,,,,,,,
2015,,,,,,,,,,,,
2016,,,,,,,,,,,,
2017,,,,,,,,,,,,
2018,,,,,,,,,,,,
2019,,,,,,,,,,,,
2020,,,,,,,,,,,,
2021,0.5346667330081344,,,,,,,,,,,0.5225424644314689
2022,,0.5417342885193137,,0.5524072681126899,,,0.5414193553849451,,,,,0.5315995230123814
2023,,,,,,,,,,,,
2024,,,,,,,,,,,,
