,J1103010,J1813010,J7364220,J7513010,J7633010
1959,,,,,
1960,,,,,
1961,,,,,
1962,,,,,
1963,,,,,
1964,,,,,
1965,,,,,
1966,,,,,
1967,,,,,
1968,,,,,
1969,,,,,
1970,,,,,
1971,,,,,
1972,,,,,
1973,,,,,
1974,,,,,
1975,,,,,
1976,,,,,
1977,,,,,
1978,,,,,
1979,,,,,
1980,,,,,
1981,,,,,
1982,,,,,
1983,,,,,
1984,,,,,
1985,,,,,
1986,,,,,
1987,,,,,
1988,,,,,
1989,,,,,
1990,0.2805454855090632,0.2805454855090632,0.2805454855090632,0.2805454855090632,0.2805454855090632
1991,,0.3438580473915557,,,
1992,,,,,
1993,,,,,
1994,0.3737962580821814,,,,0.37720091300768943
1995,,,,,
1996,0.27949526946932574,0.27949526946932574,0.27949526946932574,0.27949526946932574,0.41004281327545
1997,,,,,
1998,,,,,
1999,,,,,
2000,,,,,
2001,,,,,
2002,,,,,
2003,,,,,
2004,,,,,
2005,,,,,
2006,0.3860519377780295,0.3765224535662978,0.3922327249732427,,0.39624558058880366
2007,,,,,
2008,,,,,
2009,,,,,
2010,,,,,
2011,,,,,
2012,,,,,
2013,,,,,
2014,,,,,
2015,,,,,
2016,,,,,
2017,,,,,
2018,,,,,
2019,,,,,
2020,,,,,
2021,,,,,
2022,,0.38101176087267624,,,
2023,,,,,
2024,,,,,
