,J0014010,J0144010,J3014330,J3204020,J3205710,J3213020,J3403010
1959,,,,,,,
1960,,,,,,,
1961,,,,,,,
1962,,,,,,,
1963,,,,,,,
1964,,,,,,,
1965,,,,,,,
1966,,,,,,,
1967,,,,,,,
1968,,,,,,,
1969,,,,,,,
1970,,,,,,,
1971,0.350083089861747,0.350083089861747,0.350083089861747,0.350083089861747,0.350083089861747,0.350083089861747,0.350083089861747
1972,,,,,,,
1973,,,,,,,
1974,,,,,,,
1975,,,,,,,
1976,0.6399417437413397,0.6394205725324682,,,0.6686398784802833,,0.6257087430772674
1977,,,,,,,
1978,,,,,,,
1979,,,,,,,
1980,,,,,,,
1981,,,,,,,
1982,,,,,,,
1983,,,,,,,
1984,,,,,,,
1985,,,,,,,
1986,,,,,,,
1987,,,,,,,
1988,,,,,,,
1989,,,,,,,
1990,,,,,,,
1991,,,,,,,
1992,,,0.36948193817566793,,,,
1993,0.37800756717541206,,,,,,
1994,,,,,,,
1995,,,,,,,
1996,,,,,,,
1997,,,,,,,
1998,,,,,,,
1999,,,,,,,
2000,,,,,,,
2001,,,,,,,
2002,,,,,,,
2003,,,,,,,
2004,,,,,,,
2005,,,,,,,
2006,,,,,,,
2007,,,,,,,
2008,,,,,,,
2009,0.3823419183066148,0.3823419183066148,0.3823419183066148,0.3823419183066148,0.3823419183066148,0.3823419183066148,0.3823419183066148
2010,,,,,,,
2011,,,,,,,
2012,,,0.6841192950291684,,,,
2013,,,,,,,
2014,,,,,,,
2015,,,,,,,
2016,,,,,,,
2017,,,,,,,
2018,,,,,,,
2019,,,,,,,
2020,,,,,,,
2021,,,,,,,
2022,,,,,,,
2023,,,,,,,
2024,,,,,,,
