,J2034010,J2314910,J2404010,J2603010,J3024010,J3323020,J3403020,J3404110,J3413030,J4124420,J4224010,J4514010,J4515420,J5202110,J5205210
1959,,,,,,,,,,,,,,,
1960,,,,,,,,,,,,,,,
1961,,,,,,,,,,,,,,,
1962,,,,,,,,,,,,,,,
1963,,,,,,,,,,,,,,,
1964,,,,,,,,,,,,,,,
1965,,,,,,,,,,,,,,,
1966,,,,,,,,,,,,,,,
1967,,,,,,,,,,,,,,,
1968,,,,,,,,,,,,,,,
1969,,,,,,,,,,,,,,,
1970,,,,,,,,,,,,,,,
1971,,,,,,,,,,,,,,,
1972,,,,,,,,,,,,,,,
1973,0.4374873067746981,0.4374873067746981,0.4374873067746981,0.4374873067746981,0.4374873067746981,0.4374873067746981,0.4374873067746981,0.4374873067746981,0.4374873067746981,0.4374873067746981,0.4374873067746981,0.4374873067746981,0.4374873067746981,0.4374873067746981,0.4374873067746981
1974,,,,,,,,,,,,,,,
1975,,,,,,,,,,,,,,,
1976,,,,,,,,,,,,,,,
1977,,,,,,,,,,,,,,,
1978,,,,,,,,,,,,,,,
1979,,,,,,,,,,,,,,,
1980,,,,,,,,,,,,,,,
1981,,,,,,,,,,,,,,,
1982,,,,,,,,,,,,,,,
1983,,,,,,,,,,,,,,,
1984,,,,,,,,,,,,,,,
1985,,,,,,,,,,,,,,,
1986,,,,,,,,,,,,,,,
1987,,,,,,,,,,,,,,,
1988,,,,,,,,,,,,,,,
1989,,,,,,,,,,,,,,,
1990,,,,,,,,,,,,,,,
1991,,,,0.6280060347887351,,,,0.6450473389817863,,,,,,,
1992,,,,,,,,,,,,,,,
1993,,,,,,,,,,,,,,,
1994,,,,,,,,,,,,,,,
1995,,,,,,,,,,,,,,,
1996,,,,,,,,,,,,,,,
1997,,,,,,,,,,,,,,,
1998,,,,,,,,,,,,,,,
1999,,,,,,,,,,,,,,,
2000,,,,,,,,,,,,,,,
2001,,,,,,,,,,,,,,,
2002,,,,,,,,,,,,,,,
2003,,,,,,,,,,,,,,,
2004,,,,,,,,,,,,,,,
2005,,,,,,,,,,,,,,,
2006,,,,,,,,,,,,,,,
2007,,,,,,,,,,,,,,,
2008,,,,,,,,,,,,,,,
2009,,0.610230679234995,,,,,,,,,,,0.6020859860533461,,
2010,,,,,,,,,,,,,,,
2011,,,,,0.6459172891726972,,,,,,,,0.6459471349715725,,
2012,,,,,,,,,,,,,,,
2013,,,,,,,,,,,,,,,
2014,,,,,,,,,,,,,,,
2015,,,,,,,,,,,,,,,
2016,,,,,,,,,,,,,,,
2017,,,,,,,,,,,,,,,
2018,,,,,,,,,,,,,,,
2019,,,,,,,,,,,,,,,
2020,,,,,,,,,,,,,,,
2021,,,,,,,,,,,,,,,
2022,,,,,,,,,,,,,,,
2023,,,,,,,,,,,,,,,
2024,,,,,,,,,,,,,,,
