,J0611610,J1405310,J1524010,J2023010,J2213110,J3514010,J4712010,J4803010,J7024010,J7103010,J7344010,J8133010
1959,,,,,,,,,,,,
1960,,,,,,,,,,,,
1961,,,,,,,,,,,,
1962,,,,,,,,,,,,
1963,,,,,,,,,,,,
1964,,,,,,,,,,,,
1965,,,,,,,,,,,,
1966,,,,,,,,,,,,
1967,,,,,,,,,,,,
1968,,,,,,,,,,,,
1969,,,,,,,,,,,,
1970,,,,,,,,,,,,
1971,,,,,,,,,,,,
1972,,,,,,,,,,,,
1973,0.4374873067746981,0.4374873067746981,0.4374873067746981,0.4374873067746981,0.4374873067746981,0.4374873067746981,0.4374873067746981,0.4374873067746981,0.4374873067746981,0.4374873067746981,0.4374873067746981,0.4374873067746981
1974,,,,,,,,,,,,
1975,,,,,,,,,,,,
1976,,,,,,,,,,,,
1977,,,,,,,,,,,,
1978,,,,,,,,,,,,
1979,,,,,,,,,,,,
1980,,,,,,,,,,,,
1981,,,,,,,,,,,,
1982,,,,,,,,,,,,
1983,,,,,,,,,,,,
1984,,,,,,,,,,,,
1985,,,,,,,,,,,,
1986,,,,,,,,,,,,
1987,,,,,,,,,,,,
1988,,,,,,,,,,,,
1989,,,,,,,,,,,,
1990,,,,,,,,,,,,
1991,,,,,,,,,,,,
1992,,,,,,,,,,,,
1993,,,,,,,,,,,,
1994,,,,,,,,,,,,
1995,,,,,,,,,,,,
1996,,,,,,,,,,,,
1997,,,,,,,,,,,,
1998,,,,,,,,,,,,
1999,,,,,,,,,,,,
2000,,,,,,,,,,,,
2001,,,,,,,,,,,,
2002,,,,,,,,,,,,
2003,,,,,,,,,,,,
2004,,,,,,,,,,,,
2005,,,,,,,,,,,,
2006,,,,,,,,,,,,
2007,,,,,,,,,,,,
2008,,,,,,,,,,,,
2009,,,,,,,,,,,,
2010,,,,,,,,,,,,
2011,,,,,,0.678182977972082,,,,,0.6550301468111763,0.6603086819311964
2012,,,,,,,,,,,,
2013,,,,,,,,,,,,
2014,,,,,,,,,,,,
2015,,,,,,,,,,,,
2016,,,,,,,,,,,,
2017,,,,,,,,,,,,
2018,,,,,,,,,,,,
2019,,,,,,,,,,,,
2020,,,,,,,,,,,,
2021,,,,,,,,,,,,
2022,,,,,,,,,,,,
2023,,,,,,,,,,,,
2024,,,,,,,,,,,,
