,J0621610,J0626610,J1105810,J1114010,J1205410,J1313010,J1324010,J3733010,J5613010,J7214010,J7313010,J7353010,J8602410,J8632410
1959,,,,,,,,,,,,,,
1960,,,,,,,,,,,,,,
1961,,,,,,,,,,,,,,
1962,,,,,,,,,,,,,,
1963,,,,,,,,,,,,,,
1964,,,,,,,,,,,,,,
1965,,,,,,,,,,,,,,
1966,,,,,,,,,,,,,,
1967,,,,,,,,,,,,,,
1968,,,,,,,,,,,,,,
1969,,,,,,,,,,,,,,
1970,,,,,,,,,,,,,,
1971,0.5713713959100851,0.5708545205020594,,,,,,0.5754056485474088,0.5864868114003385,,,0.5945315796212162,0.5696943736693448,0.5881965316077609
1972,,,,,,,,,,,,,,
1973,,,,,,,,,,,,,,
1974,,,,,,,,,,,,,,
1975,,,,,,,,,,,,,,
1976,,,,,,,,,,,,,,
1977,,,,,,,,,,,,,,
1978,,,,,,,,,,,,,,
1979,,,,,,,,,,,,,,
1980,,,,,,,,,,,,,,
1981,,,,,,,,,,,,,,
1982,,,,,,,,,0.5328504761693248,,,,,
1983,,,,,,,,,,,,,,
1984,,,,,,,,,,,,,,
1985,,,,,,,,,,,,,,
1986,,,,,,,,,,,,,,
1987,,,,,,,,,,,,,,
1988,,,,,,,,,,,,,,
1989,,,,,,,,,,,,,,
1990,,,,,,,,,,,,,,
1991,0.6027120715634491,,,0.603840072031881,,0.6302791701537134,0.6442631514958613,0.6021721226367944,0.627670099441048,,,0.6302334181347133,0.6069260314120057,0.610731829570796
1992,,,,,,,,,,,,,,
1993,,,,,,,,,,,,,,
1994,,,,,,,,,,,,,,
1995,,,,,,,,,,,,,,
1996,,,,,,,,,,,,,,
1997,,,,,,,,,,,,,,
1998,,,,,,,,,,,,,,
1999,,,,,,,,,,,,,,
2000,,,,,,,,,,,,,,
2001,,,,,,,,,,,,,,
2002,,,,,,,,,,,,,,
2003,,,,,,,,,,,,,,
2004,,,,,,,,,,,,,,
2005,,,,,,,,,,,,,,
2006,,,,,,,,,,,,,,
2007,,,,,,,,,,,,,,
2008,,,,,,,,,,,,,,
2009,,,,,,,,,,,,,,
2010,,,,,,,,,,,,,,
2011,,,,,,,,,,,,,,
2012,,,,,,,,,,,,,,
2013,,,,,,,,,,,,,,
2014,,,,,,,,,,,,,,
2015,,,,,,,,,,,,,,
2016,,,,,,,,,,,,,,
2017,,,,,,,,,,,,,,
2018,,,,,,,,,,,,,,
2019,,,,,,,,,,,,,,
2020,,,,,,,,,,,,,,
2021,,,,,,,,,,,,,,
2022,,,,,,,,,,,,,,
2023,,,,,,,,,,,,,,
2024,,,,,,,,,,,,,,
