,J1103010,J1813010,J7364220,J7513010,J7633010
1959,,,,,
1960,,,,,
1961,,,,,
1962,,,,,
1963,,,,,
1964,,,,,
1965,,,,,
1966,,,,,
1967,,,,,
1968,,,,,
1969,,,,,
1970,,,,,
1971,,,,,
1972,,,,,
1973,,,,,
1974,,,,,
1975,,,,,
1976,,,,,
1977,,,,,
1978,,,,,
1979,,,,,
1980,,,,,
1981,,,,,
1982,,,,,
1983,,,,,
1984,,,,,
1985,,,,,
1986,,,,,
1987,,,,,
1988,,,,,
1989,,,,,
1990,,,,,
1991,,,,,
1992,,,,,
1993,,,,,
1994,,,0.3363639311502011,0.3395204722079799,0.3492752742964774
1995,,,,,
1996,,,,,
1997,,,,,
1998,,,,,
1999,,,,,
2000,0.35545419007177814,,0.35415744890684997,0.3421986209578703,0.3375537245492193
2001,,,,,
2002,,,,,
2003,,,,,
2004,,,,,
2005,,,,,
2006,,,0.30959309078519326,,0.32438712137016334
2007,,0.29577814928442125,,,
2008,,,,,
2009,,,,,
2010,,,,,
2011,,,,,
2012,,,,,
2013,,,,,
2014,,,,,
2015,,,,,
2016,0.3113863082317987,,,,0.36557808029495054
2017,,,,,
2018,,,,0.319724172204633,0.33540960951258725
2019,,,,,
2020,,,,,
2021,,,,,
2022,,,,,
2023,,,,,
2024,,,0.3688340489746458,0.3518251064124125,
