,J1103010,J1813010,J7364220,J7513010,J7633010
1959,,,,,
1960,,,,,
1961,,,,,
1962,,,,,
1963,,,,,
1964,,,,,
1965,,,,,
1966,,,,,
1967,,,,,
1968,,,,,
1969,,,,,
1970,,,,,
1971,,,,,
1972,,,,,
1973,,,,,
1974,,,,,
1975,,,,,
1976,,,,,
1977,,,,,
1978,,,,,
1979,,,,,
1980,,,,,
1981,,,,,
1982,,,,,
1983,,,,,
1984,,,,,
1985,,,,,
1986,,,,,
1987,,,,,
1988,,,,,
1989,,,,,
1990,,,,,
1991,,,,,
1992,,,,,
1993,,,,,
1994,,,,,
1995,,,,,
1996,,,,,
1997,,,,,
1998,,,,,
1999,,,,,
2000,,,,,
2001,,,,,
2002,,,,,
2003,,,,,
2004,,,,,
2005,,,,,
2006,,,,,
2007,,,,,
2008,,,,,
2009,,,,,
2010,,0.1928715101118016,0.18308106842513588,0.17992394294934122,
2011,,,,,
2012,,,,,
2013,0.1839961644747746,0.18414790988434263,,,
2014,,,,,
2015,,,,,
2016,0.12008593859040971,0.12008593859040971,0.12008593859040971,0.12008593859040971,0.12008593859040971
2017,,,,,
2018,,,,,
2019,,,,,
2020,0.10223636051225596,0.10223636051225596,0.19661642582086436,0.19235163926377485,0.22451323279795454
2021,,,,,
2022,,,,,
2023,,,,,
2024,,,,,
