,J2034010,J2314910,J2404010,J2603010,J3024010,J3323020,J3403020,J3404110,J3413030,J4124420,J4224010,J4514010,J4515420,J5202110,J5205210
1959,,,,,,,,,,,,,,,
1960,,,,,,,,,,,,,,,
1961,,,,,,,,,,,,,,,
1962,,,,,,,,,,,,,,,
1963,,,,,,,,,,,,,,,
1964,,,,,,,,,,,,,,,
1965,,,,,,,,,,,,,,,
1966,,,,,,,,,,,,,,,
1967,,,,,,,,,,,,,,,
1968,,,,,,,,,,,,,,,
1969,,,,,,,,,,,,,,,
1970,,,,,,,,,,,,,,,
1971,,,,,,,,,,,,,,,
1972,,,,,,,,,,,,,,,
1973,,,,,,,,,,,,,,,
1974,,,,,,,,,,,,,,,
1975,,,,,,,,,,,,,,,
1976,,,,,,,,,,,,,,,
1977,,,,,,,,,,,,,,,
1978,,,,,,,,,,,,,,,
1979,,,,,,,,,,,,,,,
1980,,,,,,,,,,,,,,,
1981,,,,,,,,,,,,,,,
1982,,,,,,,,,,,,,,,
1983,,,,,,,,,,,,,,,
1984,,,,,,,,,,,,,,,
1985,,,,,,,,,,,,,,,
1986,,,,,,,,,,,,,,,
1987,,,,,,,,,,,,,,,
1988,,,,,,,,,,,,,,,
1989,,,,,,,,,,,,,,,
1990,,,,,,,,,,,,,,,
1991,,,,,,,,,,,,,,,
1992,,,,,,,,0.5310134242701774,,,,,,,
1993,,0.5574733571552692,,0.5563976611532335,0.558316037328079,,,,,,,,0.5438393481438719,0.5601939660862031,
1994,,,,,,,,,,,,,,,
1995,,,,,,,,,,,,,,,
1996,,,,,,,,,,,,,,,
1997,,,,,,,,,,,,,,,
1998,,,,,,,,,,,,,,,
1999,,,,,,,,,,,,,,,
2000,,,,,,,,,,,,,,,
2001,,,,,,,,,,,,,,,
2002,,,,,,,,,,,,,,,
2003,,,,,,,,,,,,,,,
2004,,0.5879009258096823,,0.5861584218493338,,0.6090667221098152,0.5806212593434286,0.5869156296763738,0.5766914604455948,0.587697217683036,0.578012161144364,0.5869018781437185,0.5805830626111561,0.5850034151718151,
2005,,,,,,,,,,,,,,,
2006,,,,,,,,,,,,,,,
2007,,,,,,,,,,,,,,,
2008,,,,,,,,,,,,,,,
2009,,,,,,,,,,,,,,,
2010,,,,,,,,,,,,,,,
2011,,,,,,,,,,,,,,,
2012,,,,,,,,,,,,,,,
2013,,,,,,,,,,,,,,,
2014,,,,,,,,,,,,,,,
2015,,,,,,,,,,,,,,,
2016,,,,,,,,,,,,,,,
2017,,,,,,0.5218718460990133,,,,,,0.5453974944525959,,,
2018,,,,,,,,,,,,,,,
2019,,,,,,,,,,,,,,,
2020,,,,,,,,,,,,,,,
2021,,,,,,,,,,,,,,,
2022,,,,,,,,,,,,,,,
2023,,,,,,,,,,,,,,,
2024,,,,,,,,,,,,,,,
