,J0611610,J1405310,J1524010,J2023010,J2213110,J3514010,J4712010,J4803010,J7024010,J7103010,J7344010,J8133010
1959,,,,,,,,,,,,
1960,,,,,,,,,,,,
1961,,,,,,,,,,,,
1962,,,,,,,,,,,,
1963,,,,,,,,,,,,
1964,,,,,,,,,,,,
1965,,,,,,,,,,,,
1966,,,,,,,,,,,,
1967,,,,,,,,,,,,
1968,,,,,,,,,,,,
1969,,,,,,,,,,,,
1970,,,,,,,,,,,,
1971,,,,,,,,,,,,
1972,,,,,,,,,,,,
1973,,,,,,,,,,,,
1974,,,,,,,,,,,,
1975,,,,,,,,,,,,
1976,,,,,,,,,,,,
1977,,,,,,,,,,,,
1978,,,,,,,,,,,,
1979,,,,,,,,,,,,
1980,,,,,,,,,,,,
1981,,,,,,,,,,,,
1982,,,,,,,,,,,,
1983,,,,,,,,,,,,
1984,,,,,,,,,,,,
1985,,,,,,,,,,,,
1986,,,,,,,,,,,,
1987,,,,,,,,,,,,
1988,,,,,,,,,,,,
1989,,,,,,,,,,,,
1990,,,,,,,,,,,,
1991,,,,,,,,,,,,
1992,,,,,,,,,,,,
1993,,,,,,,,,,,,
1994,,,0.4286165725553813,,,,,,,,,
1995,,,,,,,,,,,,
1996,,,,,,,,,,,,
1997,,,,,,,,,,,,
1998,,,,,,,,,,,,
1999,,,,,,,,,,,,
2000,,,,,,,,,,,,
2001,,,,,,,,,,,,
2002,,,,,,,,,,,,
2003,,,,,,,,,,,,
2004,,,,,,,,,,,,
2005,,,,,,,,,,,,
2006,,,,,,,,,,,,
2007,0.3590151080619449,0.41948498010636537,0.3683324358503113,0.36799596994379574,0.36585782934796285,,0.3581666148216859,,,0.3896880115707114,,0.3677255235039292
2008,,,,,,,,,,,,
2009,,,,,,,,,,,,
2010,,,,,,,,,,,,
2011,,,,,,,,,,,,
2012,,,,,,,,,,,,
2013,,,,,,,,,,,,
2014,,,,,,,,,,,,
2015,,,,,,,,,,,,
2016,,,,,,,,,,,,
2017,,,,,,,,,,,,
2018,,0.41236164390776264,0.4258412181171781,0.4276083184647388,0.42651516790250976,0.3959158042297014,,,,,,0.4046167723548908
2019,,,,,,,,,,,,
2020,,,,,,,,,,,,
2021,,,,,,,,,,,,
2022,,,,,,,,,,,,
2023,,,,,,,,,,,,
2024,,,,,,,,,,,,
