,J0611610,J1405310,J1524010,J2023010,J2213110,J3514010,J4712010,J4803010,J7024010,J7103010,J7344010,J8133010
1959,,,,,,,,,,,,
1960,,,,,,,,,,,,
1961,,,,,,,,,,,,
1962,,,,,,,,,,,,
1963,,,,,,,,,,,,
1964,,,,,,,,,,,,
1965,,,,,,,,,,,,
1966,,,,,,,,,,,,
1967,,,,,,,,,,,,
1968,,,,,,,,,,,,
1969,,,,,,,,,,,,
1970,,,,,,,,,,,,
1971,,,,,,,,,,,,
1972,,,,,,,,,,,,
1973,,,,,,,,,,,,
1974,,,,,,,,,,,,
1975,,,,,,,,,,,,
1976,,,,,,,,,,,,
1977,,,,,,,,,,,,
1978,,,,,,,,,,,,
1979,,,,,,,,,,,,
1980,,,,,,,,,,,,
1981,,,,,,,,,,,,
1982,,,,,,,,,,,,
1983,,,,,,,,,,,,
1984,,,,,,,,,,,,
1985,,,,,,,,,,,,
1986,,,,,,,,,,,,
1987,,,,,,,,,,,,
1988,,,,,,,,,,,,
1989,,,,,,,,,,,,
1990,,,,,,,,,,,,
1991,,,,,,,,,,,,
1992,0.6168418326520402,,0.6031944913242604,,0.6083877592519387,0.6268249456347175,0.6271527843514364,0.6248939269956582,0.6198696736904327,,,0.6032792879291009
1993,,,,,,,,,,,,
1994,,,,,,,,,,,,
1995,,,,,,,,,,,,
1996,,,,,,,,,,,,
1997,,,,,,,,,,,,
1998,,,,,,,,,,,,
1999,,,,,,,,,,,,
2000,,,,,,,,,,,,
2001,,,,,,,,,,,,
2002,,,,,,,,,,,,
2003,,,,,,,,,,,,
2004,,,,,,,,,,,,
2005,,,,,,,0.6471942727802855,,0.6241894672577146,0.6013430835967437,,0.6085490034732259
2006,,,,,,,,,,,,
2007,,,,,,,,,,,,
2008,,,,,,,,,,,,
2009,,,,,,,,,,,,
2010,,,,,,,,,,,,
2011,,,,,,,,,,,,
2012,,,,,,,,,,,,
2013,,,,,,,,,,,,
2014,,,,,,,,,,,,
2015,,,,,,,,,,,,
2016,,,,,,,,,,,,
2017,,,,,,,,,,,,
2018,,,,,,,,,,,,
2019,,,,,,,,,,,,
2020,,,,,,,,,,,,
2021,,,,,,,,,,,,
2022,,,,,,,,,,,,
2023,,,,,,,,,,,,
2024,,,,,,,,,,,,
