,J0621610,J0626610,J1105810,J1114010,J1205410,J1313010,J1324010,J3733010,J5613010,J7214010,J7313010,J7353010,J8602410,J8632410
1959,,,,,,,,,,,,,,
1960,,,,,,,,,,,,,,
1961,,,,,,,,,,,,,,
1962,,,,,,,,,,,,,,
1963,,,,,,,,,,,,,,
1964,,,,,,,,,,,,,,
1965,,,,,,,,,,,,,,
1966,,,,,,,,,,,,,,
1967,,,,,,,,,,,,,,
1968,,,,,,,,,,,,,,
1969,,,,,,,,,,,,,,
1970,,,,,,,,,,,,,,
1971,,,,,,,,,,,,,,
1972,,,,,,,,,,,,,,
1973,0.6772752632104342,0.7477527914994888,,,,,,0.6860541837624539,0.7208111180661023,,,0.6937302730087213,0.6614037876826417,0.6709784617505004
1974,,,,,,,,,,,,,,
1975,,,,,,,,,,,,,,
1976,,,,,,,,,,,,,,
1977,,,,,,,,,,,,,,
1978,,,,,,,,,,,,,,
1979,,,,,,,,,,,,,,
1980,,,,,,,,,,,,,,
1981,,,,,,,,,,,,,,
1982,,,,,,,,,,,,,,
1983,,,,,,,,,,,,,,
1984,,,,,,,,,,,,,,
1985,,,,,,,,,,,,,,
1986,,,,,,,,,,,,,,
1987,,,,,,,,,,,,,,
1988,,,,,,,,,,,,,,
1989,,,,,,,,,,,,,,
1990,,,,,,,,,,,,,,
1991,,,,,,,,,,,,,,
1992,,,,,,,,,,,,,,
1993,,,,,,,,,,,,,,
1994,,,,,,,,,,,,,,
1995,,,,,,,,,,,,,,
1996,,,,,,,,,,,,,,
1997,0.7319427393529749,0.7679166370717373,,,,0.7286200641022837,,,,0.7281694089027128,0.7238445845244401,0.7092143255476576,,
1998,,,,,,,,,,,,,,
1999,,,,,,,,,,,,,,
2000,,,,,,,,,,,,,,
2001,,,,,,,,,,,,,,
2002,,,,,,,,,,,,,,
2003,,,,,,,,,,,,,,
2004,,,,,,,,,,,,,,
2005,,,,,,,,,,,,,,
2006,,,,,,,,,,,,,,
2007,,,,,,,,,,,,,,
2008,,,,,,,,,,,,,,
2009,,,,,,,,,,,,,,
2010,,,,,,,,,,,,,,
2011,,0.7111424034791354,,,0.751924587912837,0.7051671473879917,0.703915954234863,,,0.7408668525194267,0.7032029422177204,0.6981721249885191,,
2012,,,,,,,,,,,,,,
2013,,,,,,,,,,,,,,
2014,,,,,,,,,,,,,,
2015,,,,,,,,,,,,,,
2016,,,,,,,,,,,,,,
2017,,,,,,,,,,,,,,
2018,,,,,,,,,,,,,,
2019,,,,,,,,,,,,,,
2020,,,,,,,,,,,,,,
2021,,,,,,,,,,,,,,
2022,,,,,,,,,,,,,,
2023,,,,,,,,,,,,,,
2024,,,,,,,,,,,,,,
