,J0014010,J0144010,J3014330,J3204020,J3205710,J3213020,J3403010
1959,,,,,,,
1960,,,,,,,
1961,,,,,,,
1962,,,,,,,
1963,,,,,,,
1964,,,,,,,
1965,,,,,,,
1966,,,,,,,
1967,,,,,,,
1968,,,,,,,
1969,,,,,,,
1970,,,,,,0.3683492949798858,
1971,,,,,,,
1972,0.44158183127125017,0.4630274496171388,,,0.43068123158481103,0.44417982460095906,
1973,,,,,,,
1974,,,,,,,
1975,,,,,0.40127103066022074,0.40704688795764943,
1976,,,,,,,
1977,0.3761002486471793,0.37550359801433136,,,,0.37713960697478477,
1978,,0.36457568458522177,,,,,
1979,,0.4084019710084129,,,0.40478291513802245,0.40530748750468815,
1980,,,,,0.4191619296837872,0.4032549248879018,
1981,,,,,0.4404626780905756,0.4119797231102884,
1982,0.34473314042699577,0.35324098024206274,,,0.3403758194564638,0.34711881742954565,
1983,,,,,,,
1984,,,,,,,
1985,,,,,,,
1986,,,,,,,
1987,,,,,,,
1988,,,,,,,
1989,0.4159958630488563,0.42030506545099344,,,0.44950868134150845,0.4490861769403359,
1990,,,,,,,
1991,,,,,,,
1992,,,,,,,
1993,,,,,,,
1994,,,,,,,
1995,,,,,,,
1996,0.4110719821684561,0.4290898661566306,0.3940614728870979,,0.3895955784851287,0.39112956501554136,
1997,,,,,,0.34851147633768087,
1998,,,,,,,
1999,,,,,,,
2000,,0.34376878260781113,,,,,
2001,,,,,,,
2002,0.41504633006649705,0.4191949850061631,0.4442631992769426,0.428650033432989,0.42962344330458824,0.42635912548669685,
2003,,,,,,,
2004,,,,,,,
2005,,,,,,,
2006,,,,,,,
2007,0.34187809030455557,,,,,,
2008,,0.3712930637742975,0.38009186484662105,0.3762542329244102,0.39057441219934713,0.3950937147486854,0.3874269336659034
2009,,,,,,,
2010,,,,,,,
2011,,,,,,,
2012,,,,,,,
2013,,,,,,,
2014,,,,,,,
2015,,,,,,,
2016,,,,,,,
2017,,,,,,,
2018,,,,,,,0.38679502900563334
2019,,,,,,,
2020,,,,,,,
2021,,,,,,,
2022,,,,,,,
2023,,,,,,,
2024,,,,,,,
