,J1513010,J1614010,J1711710,J1803010,J2514010,J2614010,J2723010,J3834010,J4125720,J4211910,J4214510,J5102210,J5618310,J6213010,J7803020,J8433010
1959,,,,,,,,,,,,,,,,
1960,,,,,,,,,,,,,,,,
1961,,,,,,,,,,,,,,,,
1962,,,,,,,,,,,,,,,,
1963,,,,,,,,,,,,,,,,
1964,,,,,,,,,,,,,,,,
1965,,,,,,,,,,,,,,,,
1966,,,,,,,,,,,,,,,,
1967,,,,,,,,,,,,,,,,
1968,,,,,,,,,,,,,,,,
1969,,,,,,,,,,,,,,,,
1970,,,,,,,,,,,,,,,,
1971,,,,,,,,,,,,,,,,
1972,,,,,,,,,,,,,,,,
1973,,,,,,,,,,,,,,,,
1974,,,,,,,,,,,,,,,,
1975,,,,,,,,,,,,,,,,
1976,,,,,,,,,,,,,,,,
1977,,,,,,,,,,,,,,,,
1978,,,,,,,,,,,,,,,,
1979,,,,,,,,,,,,,,,,
1980,,,,,,,,,,,,,,,,
1981,,,,,,,,,,,,,,,,
1982,,,,,,,,,,,,,,,,
1983,,,,,,,,,,,,,,,,
1984,,,,,,,,,,,,,,,,
1985,,,,,,,,,,,,,,,,
1986,,,,,,,,,,,,,,,,
1987,,,,,,,,,,,,,,,,
1988,,,,,,,,,,,,,,,,
1989,,,,,,,,,,,,,,,,
1990,,,,,,,,,,,,,,,,
1991,,,,,,,,,,,,,,,,
1992,,,,,,,,,,,,,,,,
1993,,,,,,,,,,,,,,,,
1994,,,,,,,,,,,,,,,,
1995,,,,,,,,,,,,,,,,
1996,,,,,,,,,,,,,,,,
1997,,,,,,,,,,,,,,,,
1998,,,,,,,,,,,,,,,,
1999,,,,,,,,,,,,,,,,
2000,,,,,,,,,,,,,,,,
2001,,,,,,,,,,,,,,,,
2002,,,,,,,,,,,,,,,,
2003,,,,,,,,,,,,,,,,
2004,,,,,,,,,,,,,,,,
2005,,,,,,,,,,,,,,,,
2006,,,,,,,,,,,,,,,,
2007,,,,,,,,,,,,,,,,
2008,0.38684028850724983,0.36662913087972787,,0.39574397808360173,,0.38522720486586715,,,,,0.3938426818663334,,,,0.3956787780860336,0.3746649239779016
2009,,,,,,,,,,,,,,,,
2010,,,,,,,,,,,,,,,,
2011,,,,,,,,,,,,,,,,
2012,,,,,,,,,,,,0.3709866184428762,,,,
2013,,,,,,,,,,,,,,,,
2014,,,,,,,,,,,,,,,,
2015,,,,,,,,,,,,,,,,
2016,,,,,,,,,,,,,,,,
2017,,,,,,,,,,,,,,,,
2018,,,,,,,,,,,,,,,,
2019,,,,,,,,,,,,,,,,
2020,,,,,,,,,,,,,,,,
2021,,,,,,,,,,,,,,,,
2022,,,,,,,,,,,,,,,,
2023,0.46315644649853616,,0.4482800791520344,,,0.4467765593812646,,0.4659652575550587,,,0.46043067457329273,0.45888948655001205,,0.4432728919249047,,0.46703920793396436
2024,,,,,,,,,,,,,,,,
