,J1103010,J1813010,J7364220,J7513010,J7633010
1959,,,,,
1960,,,,,
1961,,,,,
1962,,,,,
1963,,,,,
1964,,,,,
1965,,,,,
1966,,,,,
1967,,,,,
1968,,,,,
1969,,,,,
1970,,,,,
1971,,,,,
1972,,,,,
1973,,,,,
1974,,,,,
1975,,,,,
1976,,,,,
1977,,,,,
1978,,,,,
1979,,,,,
1980,,,,,
1981,,,,,
1982,,,,,
1983,,,,,
1984,,,,,
1985,,,,,
1986,,,,,
1987,,,,,
1988,,,,,
1989,,,,,
1990,,,,,
1991,,,,,
1992,,,,,
1993,,,,,
1994,,,,,
1995,,,,,
1996,,,,,
1997,,,,,
1998,,,,,
1999,,,,,
2000,,,,,
2001,,,,,
2002,,,,,
2003,0.5455908459607167,0.5806731706522045,,,0.5960653001815139
2004,,,,,
2005,,,,,
2006,,,,,
2007,,,,,
2008,,,,,
2009,0.6035502437133209,0.6223407689932491,0.6540009662724926,,0.6531648354164987
2010,,,,,
2011,0.5719065731607997,0.5785898386773485,0.5700845129745944,0.5622945565196872,0.5497073791767296
2012,,,0.5682222049161432,0.5714303814361009,
2013,,,,,
2014,,,,,
2015,,,,,
2016,,,,,
2017,,,,,
2018,,,,,
2019,,,,,
2020,,,,,
2021,0.5436897780778811,,0.5360247268374781,0.5393384334275144,0.5324456596244569
2022,0.6333759579925027,,0.5863267192011097,0.6261725449814547,0.5474128453451117
2023,,,,,
2024,,,,,
