,J1513010,J1614010,J1711710,J1803010,J2514010,J2614010,J2723010,J3834010,J4125720,J4211910,J4214510,J5102210,J5618310,J6213010,J7803020,J8433010
1959,,,,,,,,,,,,,,,,
1960,,,,,,,,,,,,,,,,
1961,,,,,,,,,,,,,,,,
1962,,,,,,,,,,,,,,,,
1963,,,,,,,,,,,,,,,,
1964,,,,,,,,,,,,,,,,
1965,,,,,,,,,,,,,,,,
1966,,,,,,,,,,,,,,,,
1967,,,,,,,,,,,,,,,,
1968,,,,,,,,,,,,,,,,
1969,,,,,,,,,,,,,,,,
1970,,,,,,,,,,,,,,,,
1971,,,,,,,,,,,,,,,,
1972,,,,,,,,,,,,,,,,
1973,,,,,,,,,,,,,,,,
1974,,,,,,,,,,,,,,,,
1975,,,,,,,,,,,,,,,,
1976,,,,,,,,,,,,,,,,
1977,,,,,,,,,,,,,,,,
1978,,,,,,,,,,,,,,,,
1979,,,,,,,,,,,,,,,,
1980,,,,,,,,,,,,,,,,
1981,,,,,,,,,,,,,,0.19591720343048658,,
1982,,,,,,,,,,,,,,,,
1983,,,,,,,,,,,,,,,,
1984,,,,,,,,,,,,,,,,
1985,,,,,,,,0.18989925903411575,,,,,,,,
1986,,,,,,,,0.19082484969518654,,,,,,0.19717879274336786,,
1987,,,,,,,,,,,,,,,,
1988,,,,,,,,,,,,,,,,
1989,,,,,,,,,,,,,,,,
1990,,,,,,,,,,,,,,,,
1991,,,,,,,,,,,,,,,,
1992,,,,,,,,,,,,,,,,
1993,,,,,,,,,,,,,,,,
1994,,,,,,,,,,,,,,,,
1995,,,,,,,,,,,,,,,,
1996,,,,,,,,,,,,,,,,
1997,,,,,,,,,,,,,,,,
1998,,,,,,,,,,,,,,,,
1999,,,,,,,,,,,,,,,,
2000,,,,,,,,,,,,,,,,
2001,,,,,,,,,,,,,,,,
2002,,,,,,,,,,,,,,,,
2003,,,,,,,,,,,,,,,,
2004,,,,0.21970445510030623,,,,,,,,,,,,
2005,,,,,,,,,,,,,,,,
2006,,,,,,,,,,,,,,,,
2007,,,,,,,,,,,,,,,,
2008,,,,,,,,,,,,,,,,
2009,,,,,,,,,,,,,,,,
2010,,,,,,,,,,0.2569483319852071,,0.2658747487082331,0.248106332717711,,0.24825840362985063,0.2706804101244725
2011,,,,,,,,,,,,,,,,
2012,,,,,,,,,,,,,,,,
2013,,,,,,,,,,,,,,,,
2014,,,,,,,,,,,,,,,,
2015,,,,,,,,,,,,,,,,
2016,,,,,,,,,,,,,,,,
2017,,,,,,,,,,,,,,,,
2018,,,,,,,,,,,,,,,,
2019,,,,,,,,,,,,,,,,
2020,,,,,,,,,,,,,,,,
2021,,,,,,,,,,,,,,,,
2022,,,,,,,,,,,,,,,,
2023,,,,,,,,,,,,,,,,0.19112808515805488
2024,,,,,,,,,,,,,,,,
