,J0621610,J0626610,J1105810,J1114010,J1205410,J1313010,J1324010,J3733010,J5613010,J7214010,J7313010,J7353010,J8602410,J8632410
1959,,,,,,,,,,,,,,
1960,,,,,,,,,,,,,,
1961,,,,,,,,,,,,,,
1962,0.21767325284596853,0.21767325284596853,0.21767325284596853,0.21767325284596853,0.21767325284596853,0.21767325284596853,0.21767325284596853,0.21767325284596853,0.21767325284596853,0.21767325284596853,0.21767325284596853,0.21767325284596853,0.21767325284596853,0.21767325284596853
1963,0.21166177728002794,0.21166177728002794,0.21166177728002794,0.21166177728002794,0.21166177728002794,0.21166177728002794,0.21166177728002794,0.21166177728002794,0.21166177728002794,0.21166177728002794,0.21166177728002794,0.21166177728002794,0.21166177728002794,0.21166177728002794
1964,,,,,,,,,,,,,,
1965,,,,,,,,,,,,,,
1966,,,,,,,,,,,,,,
1967,,,,,,,,,,,,,,
1968,,,,,,,,,,,,,,
1969,,,,,,,,,,,,,,
1970,,,,,,,,,,,,,,
1971,,,,,,,,,,,,,,
1972,,,,,,,,,,,,,,
1973,,,,,,,,,,,,,,
1974,,,,,,,,,,,,,,
1975,0.2778298442550012,0.2778298442550012,0.2778298442550012,0.2778298442550012,0.2778298442550012,0.2778298442550012,0.2778298442550012,0.2778298442550012,0.2778298442550012,0.2778298442550012,0.2778298442550012,0.2778298442550012,0.2778298442550012,0.2778298442550012
1976,,,,,,,,,,,,,,
1977,,,,,,,,,,,,,,
1978,,,,,,,,,,,,,,
1979,,,,,,,,,,,,,,
1980,,,,,,,,,,,,,,
1981,,,,,,,,,,,,,,
1982,,,,,,,,,,,,,,
1983,0.19686987257921912,0.19686987257921912,0.19686987257921912,0.19686987257921912,0.19686987257921912,0.19686987257921912,0.19686987257921912,0.19686987257921912,0.19686987257921912,0.19686987257921912,0.19686987257921912,0.19686987257921912,0.19686987257921912,0.19686987257921912
1984,,,,,,,,,,,,,,
1985,,,,,,,,,,,,,,
1986,,,,,,,,,,,,,,
1987,,,,,,,,,,,,,,
1988,,,,,,,,,,,,,,
1989,,,,,,,,,,,,,,
1990,,,,,,,,,,,,,,
1991,,,,,,,,,,,,,,
1992,,,,,,,,,,,,,,
1993,,,,,,,,,,,,,,
1994,,,,,,,,,,,,,,
1995,,,,,,,,,,,,,,
1996,,,,,,,,,,,,,,
1997,,,,,,,,,,,,,,
1998,,,,,,,,,,,,,,
1999,,,,,,,,,,,,,,
2000,,,,,,,,,,,,,,
2001,,,,,,,,,,,,,,
2002,,,,,,,,,,,,,,
2003,,,,,,,,,,,,,,
2004,,0.20520246974880446,,,,,,,,,,,,
2005,,,,,,,,,,,,,,
2006,,,,,,,,,,,,,,
2007,,0.19921679733826872,,,,,,,,,,,,
2008,0.20947989043785972,0.20947989043785972,0.20947989043785972,0.20947989043785972,0.20947989043785972,0.20947989043785972,0.20947989043785972,0.20947989043785972,0.20947989043785972,0.20947989043785972,0.20947989043785972,0.20947989043785972,0.20947989043785972,0.20947989043785972
2009,,,,,,,,,,,,,,
2010,,,,,,,,,,,,,,
2011,,,,,,,,,,,,,,
2012,0.20733743869384952,0.20733743869384952,0.20733743869384952,0.20733743869384952,0.20733743869384952,0.20733743869384952,0.20733743869384952,0.20733743869384952,0.20733743869384952,0.20733743869384952,0.20733743869384952,0.20733743869384952,0.20733743869384952,0.20733743869384952
2013,,,,,,,,,,,,,,
2014,,,,,,,,,,,,,,
2015,,,,,,,,,,,,,,
2016,,,,,,,,,,,,,,0.19538805042254692
2017,,,,,,,,,,,,,,
2018,,,,,,,,,,,,,,
2019,,,,,,,,,,,,,,
2020,,,,,,,,,,,,,,
2021,,,,,,,,,,,,,,
2022,,,,,,,,,,,,,,
2023,0.27798721895084355,0.27798721895084355,0.27798721895084355,0.27798721895084355,0.27798721895084355,0.27798721895084355,0.27798721895084355,0.27798721895084355,0.27798721895084355,0.27798721895084355,0.27798721895084355,0.27798721895084355,0.27798721895084355,0.27798721895084355
2024,,,,,0.22482835833353568,,,,,,,,,
